<svg width="16" height="17" viewBox="0 0 16 17" fill="none" xmlns="http://www.w3.org/2000/svg">
<g clip-path="url(#clip0_456_2721)">
<path d="M9.376 14.7649C6.624 14.7649 4.384 12.5249 4.384 9.77294C4.384 7.02094 6.624 4.78094 9.376 4.78094C12.128 4.78094 14.368 7.02094 14.368 9.77294C14.336 12.5249 12.128 14.7649 9.376 14.7649ZM9.376 6.09294C7.328 6.09294 5.664 7.75694 5.664 9.80494C5.664 11.8529 7.328 13.5169 9.376 13.5169C11.424 13.5169 13.088 11.8529 13.088 9.80494C13.056 7.75694 11.424 6.09294 9.376 6.09294Z" fill="#171321"/>
<path d="M14.048 16.4609C13.984 16.4609 13.92 16.4609 13.888 16.4609C13.312 16.3969 12.768 16.1089 12.448 15.6289L12.096 15.1169C11.904 14.8289 11.968 14.4129 12.256 14.2209C12.544 14.0289 12.96 14.0929 13.152 14.3809L13.504 14.8929C13.632 15.0529 13.792 15.1809 14.016 15.1809C14.208 15.2129 14.432 15.1169 14.56 14.9889C14.72 14.8289 14.784 14.6369 14.752 14.4449C14.72 14.2529 14.624 14.0609 14.464 13.9329L12.8 12.7809C12.512 12.5889 12.448 12.1729 12.64 11.8849C12.832 11.5969 13.248 11.5329 13.536 11.7249L15.2 12.8769C15.68 13.1969 16 13.7409 16.032 14.3169C16.064 14.8929 15.872 15.4689 15.456 15.8849C15.072 16.2689 14.56 16.4609 14.048 16.4609Z" fill="#171321"/>
<path d="M9.088 6.09294C8.736 6.09294 8.448 5.80494 8.448 5.45294V1.74094H4.032C3.68 1.74094 3.392 1.45294 3.392 1.10094C3.392 0.748937 3.68 0.460938 4.032 0.460938H9.088C9.44 0.460938 9.728 0.748937 9.728 1.10094V5.45294C9.728 5.80494 9.44 6.09294 9.088 6.09294Z" fill="#171321"/>
<path d="M6.24 13.837H0.64C0.288 13.837 0 13.549 0 13.197V6.50896C0 6.15696 0.288 5.86896 0.64 5.86896C0.992 5.86896 1.28 6.15696 1.28 6.50896V12.557H6.24C6.592 12.557 6.88 12.845 6.88 13.197C6.88 13.549 6.624 13.837 6.24 13.837Z" fill="#171321"/>
<path d="M4.032 5.13296H0.639996C0.383996 5.13296 0.159996 4.97296 0.0639957 4.74896C-0.0320043 4.52496 0.0319957 4.23696 0.191996 4.04496L3.584 0.652955C3.776 0.460955 4.032 0.428955 4.288 0.524955C4.512 0.620955 4.672 0.844955 4.672 1.10096V4.49296C4.672 4.84496 4.384 5.13296 4.032 5.13296ZM2.176 3.85296H3.392V2.63696L2.176 3.85296Z" fill="#171321"/>
<path d="M11.072 9.29294H8C7.648 9.29294 7.36 9.00494 7.36 8.65294C7.36 8.30094 7.648 8.01294 8 8.01294H11.072C11.424 8.01294 11.712 8.30094 11.712 8.65294C11.712 9.00494 11.424 9.29294 11.072 9.29294Z" fill="#171321"/>
<path d="M9.376 11.4049H8C7.648 11.4049 7.36 11.1169 7.36 10.7649C7.36 10.4129 7.648 10.1249 8 10.1249H9.376C9.728 10.1249 10.016 10.4129 10.016 10.7649C10.016 11.1169 9.728 11.4049 9.376 11.4049Z" fill="#171321"/>
</g>
<defs>
<clipPath id="clip0_456_2721">
<rect width="16" height="16" fill="white" transform="translate(0 0.460938)"/>
</clipPath>
</defs>
</svg>
