<svg width="32" height="33" viewBox="0 0 32 33" fill="none" xmlns="http://www.w3.org/2000/svg">
<g clip-path="url(#clip0_1145_7366)">
<path d="M3.26516 5.71594C3.54992 14.5723 2.45248 18.0598 4.71136 22.7567C6.31113 26.081 11.7503 30.1988 15.9961 31.7154" stroke="#171321" stroke-width="1.27982" stroke-linecap="round" stroke-linejoin="round"/>
<path d="M5.34424 5.83746C7.35603 5.80199 9.33917 5.3544 11.1712 4.52232C13.0032 3.69025 14.6451 2.49137 15.9955 0.999756C17.5816 2.7521 19.5671 4.09584 21.7834 4.91688C23.9998 5.73791 26.3815 6.012 28.7265 5.71588C28.4417 14.5722 29.5391 18.0597 27.2803 22.7566C25.6805 26.0809 20.2413 30.1987 15.9955 31.7153" stroke="#171321" stroke-width="1.27982" stroke-linecap="round" stroke-linejoin="round"/>
<path d="M21.7574 13.27L20.3049 11.8174C20.2248 11.7367 20.1296 11.6726 20.0248 11.6289C19.9199 11.5852 19.8074 11.5627 19.6937 11.5627C19.5801 11.5627 19.4676 11.5852 19.3627 11.6289C19.2578 11.6726 19.1626 11.7367 19.0826 11.8174L14.6257 16.2615L12.9299 14.5626C12.7675 14.4012 12.5478 14.3106 12.3188 14.3106C12.0898 14.3106 11.8701 14.4012 11.7077 14.5626L10.2551 16.0184C10.0939 16.1803 10.0034 16.3994 10.0034 16.6279C10.0034 16.8563 10.0939 17.0755 10.2551 17.2374L13.6466 20.6289C13.775 20.7573 13.9274 20.8591 14.0951 20.9286C14.2628 20.9981 14.4425 21.0338 14.6241 21.0338C14.8056 21.0338 14.9854 20.9981 15.1531 20.9286C15.3208 20.8591 15.4732 20.7573 15.6015 20.6289L21.7574 14.489C21.838 14.4092 21.902 14.3143 21.9457 14.2097C21.9893 14.1051 22.0118 13.9928 22.0118 13.8795C22.0118 13.7661 21.9893 13.6539 21.9457 13.5492C21.902 13.4446 21.838 13.3497 21.7574 13.27V13.27Z" stroke="#171321" stroke-width="1.27982" stroke-linecap="round" stroke-linejoin="round"/>
</g>
<defs>
<clipPath id="clip0_1145_7366">
<rect width="31.9954" height="31.9954" fill="white" transform="translate(0 0.359863)"/>
</clipPath>
</defs>
</svg>
