<svg width="27" height="26" viewBox="0 0 27 26" fill="none" xmlns="http://www.w3.org/2000/svg">
<g clip-path="url(#clip0_1095_13195)">
<path d="M24.7223 18.1458V22.4792C24.7223 24.2748 23.2679 25.7292 21.4723 25.7292H3.0556V20.3125" stroke="#171321" stroke-width="0.541667" stroke-miterlimit="10"/>
<path d="M3.0556 18.1458V10.5625H24.7223V16.25" stroke="#171321" stroke-width="0.541667" stroke-miterlimit="10"/>
<path d="M13.8889 0.270832C18.3739 0.270832 22.0139 3.91083 22.0139 8.39583V10.5625H5.76392V8.39583C5.76392 3.91083 9.40392 0.270832 13.8889 0.270832Z" stroke="#171321" stroke-width="0.541667" stroke-miterlimit="10"/>
<path d="M13.8889 19.5C14.6368 19.5 15.2431 18.8937 15.2431 18.1458C15.2431 17.3979 14.6368 16.7917 13.8889 16.7917C13.141 16.7917 12.5347 17.3979 12.5347 18.1458C12.5347 18.8937 13.141 19.5 13.8889 19.5Z" stroke="#171321" stroke-width="0.541667" stroke-miterlimit="10"/>
<path d="M15.2431 18.1458H26.8889" stroke="#171321" stroke-width="0.541667" stroke-miterlimit="10"/>
<path d="M0.888916 18.1458H12.5347" stroke="#171321" stroke-width="0.541667" stroke-miterlimit="10"/>
</g>
<defs>
<clipPath id="clip0_1095_13195">
<rect width="26" height="26" fill="white" transform="translate(0.888916)"/>
</clipPath>
</defs>
</svg>
