<svg width="32" height="32" viewBox="0 0 32 32" fill="none" xmlns="http://www.w3.org/2000/svg">
<g clip-path="url(#clip0_1145_7021)">
<path d="M13.6162 0.825536C15.1936 0.579151 16.7997 0.579151 18.3771 0.825536L19.3178 3.41396C19.4323 3.72117 19.6089 4.0015 19.8365 4.23746C20.0641 4.47343 20.3379 4.65997 20.6408 4.78545C20.9437 4.91093 21.2692 4.97266 21.597 4.9668C21.9248 4.96094 22.2479 4.8876 22.5461 4.75137L25.0386 3.58674C26.3284 4.52836 27.4648 5.66374 28.4077 6.95265L27.243 9.44829C27.1068 9.74651 27.0335 10.0696 27.0276 10.3974C27.0218 10.7252 27.0835 11.0507 27.209 11.3536C27.3344 11.6565 27.521 11.9303 27.7569 12.1579C27.9929 12.3855 28.2732 12.5621 28.5805 12.6766L31.1689 13.6173C31.4153 15.1947 31.4153 16.8008 31.1689 18.3782L28.5805 19.3189C28.2732 19.4334 27.9929 19.6099 27.7569 19.8376C27.521 20.0652 27.3344 20.339 27.209 20.6419C27.0835 20.9448 27.0218 21.2703 27.0276 21.5981C27.0335 21.9259 27.1068 22.249 27.243 22.5472L28.4077 25.0428C27.4648 26.3318 26.3284 27.4671 25.0386 28.4088L22.5461 27.2441C22.2479 27.1079 21.9248 27.0346 21.597 27.0287C21.2692 27.0228 20.9437 27.0846 20.6408 27.21C20.3379 27.3355 20.0641 27.5221 19.8365 27.758C19.6089 27.994 19.4323 28.2743 19.3178 28.5815L18.9978 29.4902" stroke="#171321" stroke-width="1.27982" stroke-linecap="round" stroke-linejoin="round"/>
<path d="M18.3771 31.1699C16.7997 31.4163 15.1936 31.4163 13.6162 31.1699L12.6756 28.5815C12.5611 28.2743 12.3845 27.994 12.1569 27.758C11.9292 27.522 11.6554 27.3355 11.3525 27.21C11.0496 27.0845 10.7241 27.0228 10.3963 27.0287C10.0685 27.0345 9.74545 27.1079 9.44723 27.2441L6.95479 28.4087C5.66414 27.4668 4.52756 26.3303 3.58568 25.0396L4.75031 22.5472C4.88951 22.2494 4.96518 21.9259 4.97249 21.5972C4.97981 21.2686 4.91862 20.9421 4.79281 20.6384C4.667 20.3347 4.47933 20.0605 4.24176 19.8333C4.00419 19.6062 3.72191 19.4309 3.4129 19.3188L0.824476 18.3782C0.578039 16.8008 0.578039 15.1947 0.824476 13.6173L3.4129 12.6766C3.72012 12.5621 4.00044 12.3855 4.23641 12.1579C4.47237 11.9303 4.65891 11.6565 4.78439 11.3536C4.90987 11.0507 4.9716 10.7252 4.96574 10.3974C4.95988 10.0696 4.88654 9.74648 4.75031 9.44826L3.58568 6.95262C4.52852 5.66371 5.66498 4.52832 6.95479 3.58671L9.44723 4.75134C9.74545 4.88757 10.0685 4.9609 10.3963 4.96677C10.7241 4.97263 11.0496 4.9109 11.3525 4.78542C11.6554 4.65993 11.9292 4.4734 12.1569 4.23743C12.3845 4.00147 12.5611 3.72114 12.6756 3.41393L12.9507 2.65564" stroke="#171321" stroke-width="1.27982" stroke-linecap="round" stroke-linejoin="round"/>
<path d="M21.755 12.9677L20.2864 11.5183C20.124 11.3569 19.9043 11.2664 19.6753 11.2664C19.4463 11.2664 19.2266 11.3569 19.0642 11.5183L14.6232 15.9593L12.9275 14.2635C12.8475 14.1828 12.7523 14.1188 12.6474 14.0751C12.5425 14.0314 12.43 14.0089 12.3164 14.0089C12.2027 14.0089 12.0902 14.0314 11.9853 14.0751C11.8805 14.1188 11.7853 14.1828 11.7053 14.2635L10.2527 15.7161C10.0915 15.878 10.001 16.0972 10.001 16.3256C10.001 16.5541 10.0915 16.7732 10.2527 16.9351L13.6442 20.3299C13.9038 20.5883 14.2553 20.7335 14.6216 20.7335C14.988 20.7335 15.3395 20.5883 15.5991 20.3299L21.755 14.1899C21.9164 14.0275 22.007 13.8078 22.007 13.5788C22.007 13.3498 21.9164 13.1302 21.755 12.9677V12.9677Z" stroke="#171321" stroke-width="1.27982" stroke-linecap="round" stroke-linejoin="round"/>
</g>
<defs>
<clipPath id="clip0_1145_7021">
<rect width="31.9954" height="31.9954" fill="white"/>
</clipPath>
</defs>
</svg>
