<svg width="16" height="16" viewBox="0 0 16 16" fill="none" xmlns="http://www.w3.org/2000/svg">
<g clip-path="url(#clip0_512_1293)">
<path d="M10.3966 13.5552H3.94859C3.77886 13.5552 3.61607 13.4878 3.49605 13.3677C3.37602 13.2477 3.30859 13.0849 3.30859 12.9152V0.64C3.30859 0.470261 3.37602 0.307475 3.49605 0.187452C3.61607 0.0674284 3.77886 0 3.94859 0L13.8686 0C14.0383 0 14.2011 0.0674284 14.3211 0.187452C14.4412 0.307475 14.5086 0.470261 14.5086 0.64V9.4592C14.5086 9.62894 14.4412 9.79173 14.3211 9.91175C14.2011 10.0318 14.0383 10.0992 13.8686 10.0992C13.6989 10.0992 13.5361 10.0318 13.416 9.91175C13.296 9.79173 13.2286 9.62894 13.2286 9.4592V1.28H4.58859V12.2752H10.3966C10.5663 12.2752 10.7291 12.3426 10.8491 12.4627C10.9692 12.5827 11.0366 12.7455 11.0366 12.9152C11.0366 13.0849 10.9692 13.2477 10.8491 13.3677C10.7291 13.4878 10.5663 13.5552 10.3966 13.5552Z" fill="#7225BA"/>
<path d="M11.293 16.1185H1.38902C1.21928 16.1185 1.0565 16.051 0.936475 15.931C0.816452 15.811 0.749023 15.6482 0.749023 15.4785V3.20006C0.749023 3.03032 0.816452 2.86753 0.936475 2.74751C1.0565 2.62749 1.21928 2.56006 1.38902 2.56006H2.08982C2.25956 2.56006 2.42235 2.62749 2.54237 2.74751C2.6624 2.86753 2.72982 3.03032 2.72982 3.20006C2.72982 3.3698 2.6624 3.53258 2.54237 3.65261C2.42235 3.77263 2.25956 3.84006 2.08982 3.84006H2.02902V14.8385H10.669V14.1985C10.669 14.0287 10.7365 13.8659 10.8565 13.7459C10.9765 13.6259 11.1393 13.5585 11.309 13.5585C11.4788 13.5585 11.6415 13.6259 11.7616 13.7459C11.8816 13.8659 11.949 14.0287 11.949 14.1985V15.4785C11.949 15.5639 11.932 15.6484 11.8988 15.7271C11.8657 15.8058 11.8171 15.8771 11.756 15.9368C11.6948 15.9964 11.6224 16.0432 11.5429 16.0744C11.4634 16.1056 11.3784 16.1206 11.293 16.1185Z" fill="#7225BA"/>
<path d="M11.7441 4.87351H6.0609C5.89116 4.87351 5.72837 4.80608 5.60835 4.68605C5.48833 4.56603 5.4209 4.40324 5.4209 4.23351C5.4209 4.06377 5.48833 3.90098 5.60835 3.78096C5.72837 3.66093 5.89116 3.59351 6.0609 3.59351H11.7441C11.9138 3.59351 12.0766 3.66093 12.1966 3.78096C12.3167 3.90098 12.3841 4.06377 12.3841 4.23351C12.3841 4.40324 12.3167 4.56603 12.1966 4.68605C12.0766 4.80608 11.9138 4.87351 11.7441 4.87351Z" fill="#7225BA"/>
<path d="M9.16798 7.19675H6.01598C5.84624 7.19675 5.68345 7.12932 5.56343 7.0093C5.44341 6.88927 5.37598 6.72649 5.37598 6.55675C5.37598 6.38701 5.44341 6.22422 5.56343 6.1042C5.68345 5.98418 5.84624 5.91675 6.01598 5.91675H9.16798C9.33772 5.91675 9.5005 5.98418 9.62052 6.1042C9.74055 6.22422 9.80798 6.38701 9.80798 6.55675C9.80798 6.72649 9.74055 6.88927 9.62052 7.0093C9.5005 7.12932 9.33772 7.19675 9.16798 7.19675Z" fill="#7225BA"/>
<path d="M10.3968 13.5551C10.3135 13.5546 10.2309 13.5383 10.1536 13.5071C10.0363 13.4589 9.93586 13.3768 9.86521 13.2714C9.79456 13.166 9.75683 13.042 9.75684 12.9151V9.45909C9.75684 9.28935 9.82426 9.12657 9.94429 9.00654C10.0643 8.88652 10.2271 8.81909 10.3968 8.81909H13.856C13.982 8.81946 14.1051 8.857 14.2098 8.92702C14.3146 8.99704 14.3963 9.09641 14.4448 9.21269C14.4955 9.33076 14.5095 9.46136 14.485 9.58749C14.4605 9.71363 14.3985 9.82945 14.3072 9.91989L10.8512 13.3759C10.7294 13.4934 10.566 13.5578 10.3968 13.5551ZM11.0368 10.0991V11.3791L12.3168 10.0991H11.0368Z" fill="#7225BA"/>
</g>
<defs>
<clipPath id="clip0_512_1293">
<rect width="16" height="16" fill="white"/>
</clipPath>
</defs>
</svg>
